%YAML 1.1
%TAG !u! tag:unity3d.com,2011:
--- !u!114 &11400000
MonoBehaviour:
  m_ObjectHideFlags: 0
  m_CorrespondingSourceObject: {fileID: 0}
  m_PrefabInstance: {fileID: 0}
  m_PrefabAsset: {fileID: 0}
  m_GameObject: {fileID: 0}
  m_Enabled: 1
  m_EditorHideFlags: 0
  m_Script: {fileID: 11500000, guid: a756c1b6d0b41624b8d1994e749894cc, type: 3}
  m_Name: TeapotInfo
  m_EditorClassIdentifier: 
  hiddenName: Unknown
  displayName: Dresser Teapot
  designerName: Christopher Dresser
  hiddenIcon: {fileID: 21300000, guid: 0883773c2540535498af413a845e390b, type: 3}
  displayIcon: {fileID: 21300000, guid: 0883773c2540535498af413a845e390b, type: 3}
  galleryIcon: {fileID: 21300000, guid: f2c42e1ef2244124abbac5b157e7d7ec, type: 3}
  galleryRenderLit: {fileID: 21300000, guid: dc449ebbc054e5a4cade1f65af94fa39, type: 3}
  galleryRenderUnlit: {fileID: 21300000, guid: 0883773c2540535498af413a845e390b, type: 3}
  lightBulbInfo:
  - "This teapot is one of Christopher Dresser\u2019s most famous designs."
  - Christopher Dresser (1834-1904) was born in Glasgow.
  - He worked with manufacturers to create metalwork, furniture, ceramics and glass.
  sceneNames:
  - 3-1 Teapot
  - 3-2 Teapot
  - 3-3 Teapot
  threeStarMaxMoves: 080000000600000007000000
  twoStarMaxMoves: 0b0000000a0000000a000000
